Accessed Users: 

user 1: 1148849478456280611|23-03-2014 10:27:43|/192.168.56.1:15021|0 images|0 videos|appName: Netscape platform: Win32 userAgent: Mozilla/5.0 (Windows NT 6.1; WOW64) AppleWebKit/537.36 (KHTML, like Gecko) Chrome/33.0.1750.154 Safari/537.36|supported
_______________________________________________
user 2: 5934731526569206152|23-03-2014 07:54:17|/192.168.56.1:14590|0 images|0 videos|appName: Netscape platform: Win32 userAgent: Mozilla/5.0 (Windows NT 6.1; WOW64) AppleWebKit/537.36 (KHTML, like Gecko) Chrome/33.0.1750.154 Safari/537.36|supported
_______________________________________________
user 3: -114551224611657744|23-03-2014 08:14:53|/192.168.56.1:14606|0 images|0 videos|appName: Netscape platform: Win32 userAgent: Mozilla/5.0 (Windows NT 6.1; WOW64) AppleWebKit/537.36 (KHTML, like Gecko) Chrome/33.0.1750.154 Safari/537.36|supported
_______________________________________________
user 4: 3484546048502667810|23-03-2014 08:30:54|/192.168.56.1:14630|0 images|0 videos|appName: Netscape platform: Win32 userAgent: Mozilla/5.0 (Windows NT 6.1; WOW64) AppleWebKit/537.36 (KHTML, like Gecko) Chrome/33.0.1750.154 Safari/537.36|supported
_______________________________________________
user 5: -1045473608230837452|23-03-2014 10:27:25|/192.168.56.1:15016|0 images|0 videos|appName: Netscape platform: Win32 userAgent: Mozilla/5.0 (Windows NT 6.1; WOW64) AppleWebKit/537.36 (KHTML, like Gecko) Chrome/33.0.1750.154 Safari/537.36|supported
_______________________________________________
user 6: -4103092435722845464|23-03-2014 08:14:56|/192.168.56.1:14610|0 images|0 videos|appName: Netscape platform: Win32 userAgent: Mozilla/5.0 (Windows NT 6.1; WOW64) AppleWebKit/537.36 (KHTML, like Gecko) Chrome/33.0.1750.154 Safari/537.36|supported
_______________________________________________
user 7: 3482081166290588659|23-03-2014 10:21:51|/192.168.56.1:15004|0 images|0 videos|appName: Netscape platform: Win32 userAgent: Mozilla/5.0 (Windows NT 6.1; WOW64) AppleWebKit/537.36 (KHTML, like Gecko) Chrome/33.0.1750.154 Safari/537.36|supported
_______________________________________________
Total: 7 users | 0 images | 0 videos